<?xml version="1.0" encoding="UTF-8" standalone="no"?>
<!-- Created with Inkscape (http://www.inkscape.org/) -->

<svg
   width="132.29167mm"
   height="132.29167mm"
   viewBox="0 0 132.29167 132.29167"
   version="1.1"
   id="svg5"
   inkscape:version="1.1.2 (0a00cf5339, 2022-02-04)"
   sodipodi:docname="Clock.svg"
   xmlns:inkscape="http://www.inkscape.org/namespaces/inkscape"
   xmlns:sodipodi="http://sodipodi.sourceforge.net/DTD/sodipodi-0.dtd"
   xmlns="http://www.w3.org/2000/svg"
   xmlns:svg="http://www.w3.org/2000/svg">
  <sodipodi:namedview
     id="namedview7"
     pagecolor="#ffffff"
     bordercolor="#666666"
     borderopacity="1.0"
     inkscape:pageshadow="2"
     inkscape:pageopacity="0.0"
     inkscape:pagecheckerboard="0"
     inkscape:document-units="mm"
     showgrid="false"
     inkscape:snap-bbox="true"
     inkscape:bbox-paths="true"
     inkscape:bbox-nodes="true"
     inkscape:snap-bbox-edge-midpoints="true"
     inkscape:snap-bbox-midpoints="true"
     inkscape:snap-intersection-paths="true"
     inkscape:object-paths="true"
     inkscape:snap-smooth-nodes="true"
     inkscape:snap-midpoints="true"
     inkscape:snap-center="true"
     inkscape:snap-object-midpoints="true"
     inkscape:zoom="1.2810466"
     inkscape:cx="377.42578"
     inkscape:cy="213.10701"
     inkscape:window-width="1920"
     inkscape:window-height="1011"
     inkscape:window-x="1920"
     inkscape:window-y="32"
     inkscape:window-maximized="1"
     inkscape:current-layer="layer1" />
  <defs
     id="defs2" />
  <g
     inkscape:label="Layer 1"
     inkscape:groupmode="layer"
     id="layer1"
     transform="translate(-74.595001,-38.392788)">
    <path
       id="circle1108"
       style="fill:#d5d2ce;fill-opacity:1;stroke-width:9.99999"
       d="M 250,0 A 250.00001,250.00001 0 0 0 0,250 250.00001,250.00001 0 0 0 250,500 250.00001,250.00001 0 0 0 500,250 250.00001,250.00001 0 0 0 250,0 Z m 0,40 A 210,210 0 0 1 460,250 210,210 0 0 1 250,460 210,210 0 0 1 40,250 210,210 0 0 1 250,40 Z"
       transform="matrix(0.26458333,0,0,0.26458333,74.595001,38.392788)" />
    <circle
       style="fill:#d5d2ce;fill-opacity:1;stroke-width:2.07977"
       id="path1481"
       cx="140.74084"
       cy="104.53862"
       r="5.2916665" />
    <path
       id="path1711"
       style="fill:#d5d2ce;fill-opacity:1;stroke-width:10"
       inkscape:transform-center-y="-7.7170166"
       transform="matrix(0.22736552,0,0,0.22736552,111.4856,36.310881)"
       d="m 128.67058,96.43346 23.27379,203.64607 -46.54761,0.007 z"
       sodipodi:nodetypes="cccc" />
    <path
       id="path2068"
       style="fill:#d5d2ce;fill-opacity:1;stroke-width:2.27366"
       d="m 187.04392,104.53862 -46.30209,5.29166 -0.002,-10.58332 z"
       sodipodi:nodetypes="cccc"
       inkscape:transform-center-x="-7.716815" />
  </g>
</svg>
