<?xml version="1.0" encoding="UTF-8" standalone="no"?>
<!-- Created with Inkscape (http://www.inkscape.org/) -->

<svg
   width="132.29167mm"
   height="132.29167mm"
   viewBox="0 0 132.29167 132.29167"
   version="1.1"
   id="svg5"
   inkscape:version="1.1.2 (0a00cf5339, 2022-02-04)"
   sodipodi:docname="TimeWheel.svg"
   xmlns:inkscape="http://www.inkscape.org/namespaces/inkscape"
   xmlns:sodipodi="http://sodipodi.sourceforge.net/DTD/sodipodi-0.dtd"
   xmlns="http://www.w3.org/2000/svg"
   xmlns:svg="http://www.w3.org/2000/svg">
  <sodipodi:namedview
     id="namedview7"
     pagecolor="#ffffff"
     bordercolor="#666666"
     borderopacity="1.0"
     inkscape:pageshadow="2"
     inkscape:pageopacity="0.0"
     inkscape:pagecheckerboard="0"
     inkscape:document-units="mm"
     showgrid="false"
     inkscape:snap-bbox="true"
     inkscape:bbox-paths="true"
     inkscape:bbox-nodes="true"
     inkscape:snap-bbox-edge-midpoints="true"
     inkscape:snap-bbox-midpoints="true"
     inkscape:object-paths="true"
     inkscape:snap-intersection-paths="true"
     inkscape:snap-midpoints="true"
     inkscape:snap-smooth-nodes="true"
     inkscape:snap-object-midpoints="true"
     inkscape:snap-center="true"
     inkscape:zoom="1.8116734"
     inkscape:cx="191.25963"
     inkscape:cy="280.40374"
     inkscape:window-width="1920"
     inkscape:window-height="1011"
     inkscape:window-x="1920"
     inkscape:window-y="32"
     inkscape:window-maximized="1"
     inkscape:current-layer="layer1" />
  <defs
     id="defs2" />
  <g
     inkscape:label="Layer 1"
     inkscape:groupmode="layer"
     id="layer1"
     transform="translate(-66.660179,-26.640343)">
    <path
       id="path846"
       style="fill:#8f8c89;fill-opacity:1;stroke-width:18.5781"
       d="M 250,0 A 250.00001,250.00001 0 0 0 0,250 250.00001,250.00001 0 0 0 250,500 250.00001,250.00001 0 0 0 500,250 250.00001,250.00001 0 0 0 250,0 Z m 0,125 A 125,125 0 0 1 375,250 125,125 0 0 1 250,375 125,125 0 0 1 125,250 125,125 0 0 1 250,125 Z"
       transform="matrix(0.26458333,0,0,0.26458333,66.660179,26.640343)" />
    <rect
       style="fill:#000000;fill-opacity:1;stroke-width:2.48875"
       id="rect1495"
       width="2.6458333"
       height="23.8125"
       x="160.08354"
       y="-47.563446"
       ry="1.3229166"
       inkscape:transform-center-y="-42.962983"
       inkscape:transform-center-x="-24.80468"
       transform="rotate(30)" />
    <rect
       style="fill:#000000;fill-opacity:1;stroke-width:2.48875"
       id="rect1210"
       width="2.6458333"
       height="23.8125"
       x="91.463257"
       y="-194.32164"
       ry="1.3229166"
       inkscape:transform-center-y="-1.8759994e-06"
       inkscape:transform-center-x="-49.609378"
       transform="rotate(90)" />
    <rect
       style="fill:#000000;fill-opacity:1;stroke-width:2.48875"
       id="rect1499"
       width="2.6458333"
       height="23.8125"
       x="-69.943207"
       y="-208.27382"
       ry="1.3229166"
       inkscape:transform-center-y="42.962982"
       inkscape:transform-center-x="-24.804687"
       transform="rotate(150)" />
    <rect
       style="fill:#000000;fill-opacity:1;stroke-width:2.48875"
       id="rect1501"
       width="2.6458333"
       height="23.8125"
       x="-162.72939"
       y="-75.467804"
       ry="1.3229166"
       inkscape:transform-center-y="42.962979"
       inkscape:transform-center-x="24.804686"
       transform="rotate(-150)" />
    <rect
       style="fill:#000000;fill-opacity:1;stroke-width:2.48875"
       id="rect1503"
       width="2.6458333"
       height="23.8125"
       x="-94.109093"
       y="71.29039"
       ry="1.3229166"
       inkscape:transform-center-x="49.609371"
       transform="rotate(-90)" />
    <rect
       style="fill:#000000;fill-opacity:1;stroke-width:2.48875"
       id="rect1505"
       width="2.6458333"
       height="23.8125"
       x="67.297379"
       y="85.242569"
       ry="1.3229166"
       inkscape:transform-center-x="24.804683"
       transform="rotate(-30)"
       inkscape:transform-center-y="-42.962978" />
    <rect
       style="fill:#000000;fill-opacity:1;stroke-width:1.75981"
       id="rect1507"
       width="2.6458333"
       height="11.90625"
       x="102.94301"
       y="62.481667"
       ry="1.3229166"
       inkscape:transform-center-x="14.380638"
       inkscape:transform-center-y="-53.669252"
       transform="rotate(-15)" />
    <rect
       style="fill:#000000;fill-opacity:1;stroke-width:1.75981"
       id="rect1608"
       width="2.6458333"
       height="11.90625"
       x="131.48309"
       y="31.270554"
       ry="1.3229166"
       inkscape:transform-center-x="5.5140342e-06"
       inkscape:transform-center-y="-55.562499" />
    <rect
       style="fill:#000000;fill-opacity:1;stroke-width:1.75981"
       id="rect1610"
       width="2.6458333"
       height="11.90625"
       x="150.97267"
       y="-6.2637849"
       ry="1.3229166"
       inkscape:transform-center-x="-14.380631"
       inkscape:transform-center-y="-53.669253"
       transform="rotate(15)" />
    <rect
       style="fill:#000000;fill-opacity:1;stroke-width:1.75981"
       id="rect1612"
       width="2.6458333"
       height="11.90625"
       x="158.19485"
       y="-89.813919"
       ry="1.3229166"
       inkscape:transform-center-x="-39.288618"
       inkscape:transform-center-y="-39.288616"
       transform="rotate(45)" />
    <rect
       style="fill:#000000;fill-opacity:1;stroke-width:1.75981"
       id="rect1614"
       width="2.6458333"
       height="11.90625"
       x="145.43529"
       y="-130.13591"
       ry="1.3229166"
       inkscape:transform-center-x="-48.118532"
       inkscape:transform-center-y="-27.781237"
       transform="rotate(60)" />
    <rect
       style="fill:#000000;fill-opacity:1;stroke-width:1.75981"
       id="rect1616"
       width="2.6458333"
       height="11.90625"
       x="122.67439"
       y="-165.78154"
       ry="1.3229166"
       inkscape:transform-center-x="-53.669242"
       inkscape:transform-center-y="-14.380612"
       transform="rotate(75)" />
    <rect
       style="fill:#000000;fill-opacity:1;stroke-width:1.75981"
       id="rect1618"
       width="2.6458333"
       height="11.90625"
       x="53.92894"
       y="-213.8112"
       ry="1.3229166"
       inkscape:transform-center-x="-53.669236"
       inkscape:transform-center-y="14.380646"
       transform="rotate(105)" />
    <rect
       style="fill:#000000;fill-opacity:1;stroke-width:1.75981"
       id="rect1620"
       width="2.6458333"
       height="11.90625"
       x="12.629279"
       y="-222.92209"
       ry="1.3229166"
       inkscape:transform-center-x="-48.11852"
       inkscape:transform-center-y="27.781259"
       transform="rotate(120)" />
    <rect
       style="fill:#000000;fill-opacity:1;stroke-width:1.75981"
       id="rect1622"
       width="2.6458333"
       height="11.90625"
       x="-29.621199"
       y="-221.03339"
       ry="1.3229166"
       inkscape:transform-center-x="-39.288602"
       inkscape:transform-center-y="39.288625"
       transform="rotate(135)" />
    <rect
       style="fill:#000000;fill-opacity:1;stroke-width:1.75981"
       id="rect1624"
       width="2.6458333"
       height="11.90625"
       x="-105.58883"
       y="-185.51291"
       ry="1.3229166"
       inkscape:transform-center-x="-14.380613"
       inkscape:transform-center-y="53.669249"
       transform="rotate(165)" />
    <rect
       style="fill:#000000;fill-opacity:1;stroke-width:1.75981"
       id="rect1626"
       width="2.6458333"
       height="11.90625"
       x="-134.12892"
       y="-154.30179"
       ry="1.3229166"
       inkscape:transform-center-x="1.1346491e-05"
       inkscape:transform-center-y="55.562484"
       transform="scale(-1)" />
    <rect
       style="fill:#000000;fill-opacity:1;stroke-width:1.75981"
       id="rect1628"
       width="2.6458333"
       height="11.90625"
       x="-153.6185"
       y="-116.76745"
       ry="1.3229166"
       inkscape:transform-center-x="14.380636"
       inkscape:transform-center-y="53.669235"
       transform="rotate(-165)" />
    <rect
       style="fill:#000000;fill-opacity:1;stroke-width:1.75981"
       id="rect1630"
       width="2.6458333"
       height="11.90625"
       x="-160.84068"
       y="-33.217312"
       ry="1.3229166"
       inkscape:transform-center-x="39.288612"
       inkscape:transform-center-y="39.288607"
       transform="rotate(-135)" />
    <rect
       style="fill:#000000;fill-opacity:1;stroke-width:1.75981"
       id="rect1632"
       width="2.6458333"
       height="11.90625"
       x="-148.08112"
       y="7.1046839"
       ry="1.3229166"
       inkscape:transform-center-x="48.118521"
       inkscape:transform-center-y="27.781246"
       transform="rotate(-120)" />
    <rect
       style="fill:#000000;fill-opacity:1;stroke-width:1.75981"
       id="rect1634"
       width="2.6458333"
       height="11.90625"
       x="-125.32021"
       y="42.75032"
       ry="1.3229166"
       inkscape:transform-center-x="53.669237"
       inkscape:transform-center-y="14.380634"
       transform="rotate(-105)" />
    <rect
       style="fill:#000000;fill-opacity:1;stroke-width:1.75981"
       id="rect1636"
       width="2.6458333"
       height="11.90625"
       x="-56.57476"
       y="90.779984"
       ry="1.3229166"
       inkscape:transform-center-x="53.669236"
       inkscape:transform-center-y="-14.380624"
       transform="rotate(-75)" />
    <rect
       style="fill:#000000;fill-opacity:1;stroke-width:1.75981"
       id="rect1638"
       width="2.6458333"
       height="11.90625"
       x="-15.275101"
       y="99.890869"
       ry="1.3229166"
       inkscape:transform-center-x="48.118519"
       inkscape:transform-center-y="-27.781235"
       transform="rotate(-60)" />
    <rect
       style="fill:#000000;fill-opacity:1;stroke-width:1.75981"
       id="rect1640"
       width="2.6458333"
       height="11.90625"
       x="26.975378"
       y="98.002167"
       ry="1.3229166"
       inkscape:transform-center-x="39.288607"
       inkscape:transform-center-y="-39.288602"
       transform="rotate(-45)" />
  </g>
</svg>
