[gd_resource type="Theme" load_steps=3 format=2]

[ext_resource path="res://Media/Panels/LargePanelBackground.svg" type="Texture" id=1]

[sub_resource type="StyleBoxTexture" id=1]
texture = ExtResource( 1 )
region_rect = Rect2( 0, 0, 310, 150 )

[resource]
Panel/styles/panel = SubResource( 1 )
