[gd_resource type="Theme" load_steps=3 format=2]

[ext_resource path="res://Fonts/UbuntuRegular.ttf" type="DynamicFontData" id=1]

[sub_resource type="DynamicFont" id=1]
font_data = ExtResource( 1 )

[resource]
default_font = SubResource( 1 )
Button/colors/font_color = Color( 0.88, 0.88, 0.88, 1 )
Button/fonts/font = null
