[gd_scene load_steps=6 format=2]

[ext_resource path="res://Themes/LargePanel.tres" type="Theme" id=1]
[ext_resource path="res://Fonts/UbuntuRegular.ttf" type="DynamicFontData" id=2]
[ext_resource path="res://Themes/PromptButton.tres" type="Theme" id=3]

[sub_resource type="DynamicFont" id=1]
font_data = ExtResource( 2 )

[sub_resource type="Theme" id=2]
Label/colors/font_color = Color( 0, 0, 0, 1 )
Label/fonts/font = SubResource( 1 )

[node name="PromtPanel" type="Panel"]
margin_left = 345.0
margin_top = 225.0
margin_right = 655.0
margin_bottom = 375.0
theme = ExtResource( 1 )

[node name="InfoLabel" type="Label" parent="."]
margin_left = 10.0
margin_top = 10.0
margin_right = 300.0
margin_bottom = 100.0
theme = SubResource( 2 )
align = 1
autowrap = true

[node name="NoButton" type="Button" parent="."]
margin_left = 10.0
margin_top = 110.0
margin_right = 150.0
margin_bottom = 140.0
theme = ExtResource( 3 )
text = "No"

[node name="YesButton" type="Button" parent="."]
margin_left = 160.0
margin_top = 110.0
margin_right = 300.0
margin_bottom = 140.0
theme = ExtResource( 3 )
text = "Yes"
